{
	"info": {
		"_postman_id": "9854c2a7-c3c5-4137-b517-40163892e998",
		"name": "Mars",
		"schema": "https://schema.getpostman.com/json/collection/v2.1.0/collection.json",
		"_exporter_id": "257809"
	},
	"item": [
		{
			"name": "Create Plateau",
			"request": {
				"method": "POST",
				"header": [],
				"body": {
					"mode": "raw",
					"raw": "{\n    \"x\": 10,\n    \"y\": 12\n}",
					"options": {
						"raw": {
							"language": "json"
						}
					}
				},
				"url": {
					"raw": "http://rover.local.io/api/v1/plateau",
					"protocol": "http",
					"host": [
						"rover",
						"local",
						"io"
					],
					"path": [
						"api",
						"v1",
						"plateau"
					]
				}
			},
			"response": []
		},
		{
			"name": "List Plateaus",
			"request": {
				"method": "GET",
				"header": [],
				"url": {
					"raw": "http://rover.local.io/api/v1/plateau",
					"protocol": "http",
					"host": [
						"rover",
						"local",
						"io"
					],
					"path": [
						"api",
						"v1",
						"plateau"
					]
				}
			},
			"response": []
		},
		{
			"name": "Delete Plateau",
			"request": {
				"method": "DELETE",
				"header": [],
				"url": {
					"raw": "http://rover.local.io/api/v1/plateau/0",
					"protocol": "http",
					"host": [
						"rover",
						"local",
						"io"
					],
					"path": [
						"api",
						"v1",
						"plateau",
						"0"
					]
				}
			},
			"response": []
		},
		{
			"name": "Create Rover",
			"request": {
				"method": "POST",
				"header": [],
				"body": {
					"mode": "raw",
					"raw": "{\n    \"plateau_id\": 0,\n    \"x\": 0,\n    \"y\": 0,\n    \"rotate\": \"S\"\n}",
					"options": {
						"raw": {
							"language": "json"
						}
					}
				},
				"url": {
					"raw": "http://rover.local.io/api/v1/rover",
					"protocol": "http",
					"host": [
						"rover",
						"local",
						"io"
					],
					"path": [
						"api",
						"v1",
						"rover"
					]
				}
			},
			"response": []
		},
		{
			"name": "List Rover On Plateau",
			"request": {
				"method": "GET",
				"header": [],
				"url": {
					"raw": "http://rover.local.io/api/v1/rover/0",
					"protocol": "http",
					"host": [
						"rover",
						"local",
						"io"
					],
					"path": [
						"api",
						"v1",
						"rover",
						"0"
					]
				}
			},
			"response": []
		},
		{
			"name": "Delete Rover On Plateau",
			"request": {
				"method": "DELETE",
				"header": [],
				"url": {
					"raw": "http://rover.local.io/api/v1/rover/0/0",
					"protocol": "http",
					"host": [
						"rover",
						"local",
						"io"
					],
					"path": [
						"api",
						"v1",
						"rover",
						"0",
						"0"
					]
				}
			},
			"response": []
		},
		{
			"name": "Send Command To Rover",
			"request": {
				"method": "PUT",
				"header": [],
				"body": {
					"mode": "raw",
					"raw": "{\n    \"commands\": \"RMMMMMMMMMMMMMMM\"\n}",
					"options": {
						"raw": {
							"language": "json"
						}
					}
				},
				"url": {
					"raw": "http://rover.local.io/api/v1/rover/0/0",
					"protocol": "http",
					"host": [
						"rover",
						"local",
						"io"
					],
					"path": [
						"api",
						"v1",
						"rover",
						"0",
						"0"
					]
				}
			},
			"response": []
		},
		{
			"name": "Rover State",
			"request": {
				"method": "GET",
				"header": [],
				"url": {
					"raw": "http://rover.local.io/api/v1/rover/0/0",
					"protocol": "http",
					"host": [
						"rover",
						"local",
						"io"
					],
					"path": [
						"api",
						"v1",
						"rover",
						"0",
						"0"
					]
				}
			},
			"response": []
		}
	]
}